{"count":69,"next":"MOCK","previous":null,"results":[{"id":174253,"dates":[{"start":1541836800,"end":1541952000}],"title":"фестиваль животных из приютов Woof","place":{"id":31282,"title":"пространство «Хлебозавод 9»","slug":"art-prostranstvo-hlebozavod-9-31282","address":"ул. Новодмитровская, д. 1, стр. 17","phone":"","subway":"Дмитровская","location":"msk","site_url":"https://kudago.com/msk/place/art-prostranstvo-hlebozavod-9-31282/","is_closed":false,"coords":{"lat":55.80707617848665,"lon":37.5848894391486},"is_stub":true},"description":"<p> Осенью так приятно сидеть с книгой в шерстяных носках, пить горячий чай рядом с теплым четвероногим другом! У вас еще нет питомца? Не беда! Обзавестись преданным хвостатым другом и сделать доброе дело можно 10—11 ноября на фестивале Woof, организованном благотворительным фондом  «Ника»  и брендом кормов для домашних животных Purina.\n </p>","categories":["social-activity","festival"],"images":[{"image":"https://kudago.com/media/images/event/ad/cb/adcbfeb87fcb2ffcb3557e1c17df860a.jpg","source":{"name":"shutterstock.com","link":""}}],"short_title":"Woof"},{"id":164693,"dates":[{"start":1512226800,"end":1512226800},{"start":1512831600,"end":1512831600},{"start":1513526400,"end":1513526400},{"start":1514048400,"end":1514048400},{"start":1514653200,"end":1514653200},{"start":1516813200,"end":1516822200},{"start":1517155200,"end":1517162400},{"start":1517587200,"end":1517594400},{"start":1518541200,"end":1518548400},{"start":1518886800,"end":1518894000},{"start":1519318800,"end":1519318800},{"start":1519750800,"end":1519750800},{"start":1520092800,"end":1520092800},{"start":1520442000,"end":1520442000},{"start":1520524800,"end":1520524800},{"start":1520614800,"end":1520614800},{"start":1523552400,"end":1523559600},{"start":1523725200,"end":1523732400},{"start":1524589200,"end":1524596400},{"start":1524848400,"end":1524855600},{"start":1524934800,"end":1524942000},{"start":1525626000,"end":1525626000},{"start":1525971600,"end":1525971600},{"start":1526230800,"end":1526230800},{"start":1526828400,"end":1526828400},{"start":1527346800,"end":1527346800},{"start":1527613200,"end":1527613200},{"start":1528038000,"end":1528038000},{"start":1528304400,"end":1528304400},{"start":1528556400,"end":1528556400},{"start":1528642800,"end":1528642800},{"start":1529082000,"end":1529082000},{"start":1529247600,"end":1529247600},{"start":1529600400,"end":1529600400},{"start":1529852400,"end":1529852400},{"start":1530460800,"end":1530460800},{"start":1530723600,"end":1530723600},{"start":1531065600,"end":1531065600},{"start":1531328400,"end":1531328400},{"start":1531670400,"end":1531670400},{"start":1531933200,"end":1531933200},{"start":1532271600,"end":1532271600},{"start":1532538000,"end":1532538000},{"start":1532876400,"end":1532876400},{"start":1536949200,"end":1536949200},{"start":1537554000,"end":1537554000},{"start":1538158800,"end":1538158800},{"start":1538763600,"end":1538763600},{"start":1538928000,"end":1538928000},{"start":1539368400,"end":1539368400},{"start":1539532800,"end":1539532800},{"start":1539973200,"end":1539973200},{"start":1540137600,"end":1540137600},{"start":1540578000,"end":1540578000},{"start":1540742400,"end":1540742400},{"start":1541001600,"end":1541001600},{"start":1541182800,"end":1541182800},{"start":1541347200,"end":1541347200},{"start":1541433600,"end":1541433600},{"start":1541611800,"end":1541611800},{"start":1541787600,"end":1541787600},{"start":1541960400,"end":1541960400},{"start":1542211200,"end":1542211200},{"start":1542392400,"end":1542392400},{"start":1542556800,"end":1542556800},{"start":1542821400,"end":1542821400},{"start":1542997200,"end":1542997200},{"start":1543248000,"end":1543248000},{"start":1543420800,"end":1543420800}],"title":"стендап-шоу «Открытый микрофон»","place":{"id":30681,"title":"кафе «Бризоль»/«БуфетЪ Чайковский»","slug":"kafe-brizol","address":"Брюсов переулок, дом 2/14, строение 8 (вход через Международный союз музыкальных деятелей)","phone":"","subway":"Александровский сад, Арбатская, Библиотека имени Ленина","location":"msk","site_url":"https://kudago.com/msk/place/kafe-brizol/","is_closed":false,"coords":{"lat":55.75710500000014,"lon":37.605535},"is_stub":true},"description":"<p>В роскошной обстановке старинного особняка пройдёт шоу для любителей жанра стендап. Участники популярных проектов канала ТНТ поделятся со зрителями новыми историями. Не упустите возможность услышать эксклюзив!</p>\n","categories":["concert","show"],"images":[{"image":"https://kudago.com/media/images/event/fa/22/fa224b1087ff3356b53e5d63739dcc0d.jpg","source":{"name":"","link":""}},{"image":"https://kudago.com/media/images/event/be/ca/becab53c179e5644320ecc76942155ff.jpg","source":{"name":"","link":""}},{"image":"https://kudago.com/media/images/event/37/1c/371c905675b603c146382f5fc1b85a66.jpg","source":{"name":"","link":""}},{"image":"https://kudago.com/media/images/event/d6/c7/d6c75c6749d2417fbd0b81332d91bc81.jpg","source":{"name":"","link":""}},{"image":"https://kudago.com/media/images/event/87/db/87db53bb5df7cc2197ff922fcafe9613.jpg","source":{"name":"","link":""}},{"image":"https://kudago.com/media/images/event/5d/78/5d7883d278121c310e14294eaf810254.jpg","source":{"name":"","link":""}},{"image":"https://kudago.com/media/images/event/e4/17/e4175e7639565fab5889ffee1172b367.jpg","source":{"name":"","link":""}}],"short_title":"Открытый микрофон"},{"id":158509,"dates":[{"start":1506762000,"end":1506877200},{"start":1509786000,"end":1509901200},{"start":1514019600,"end":1514134800},{"start":1514970000,"end":1515085200},{"start":1517648400,"end":1517763600},{"start":1521277200,"end":1521392400},{"start":1523091600,"end":1523120400},{"start":1523178000,"end":1523206800},{"start":1526115600,"end":1526230800},{"start":1531562400,"end":1531677600},{"start":1534500000,"end":1534525200},{"start":1534586400,"end":1534611600},{"start":1534672800,"end":1534698000},{"start":1537005600,"end":1537117200},{"start":1540026000,"end":1540141200},{"start":1542445200,"end":1542560400}],"title":"маркет «4 сезона»","place":{"id":31282,"title":"пространство «Хлебозавод 9»","slug":"art-prostranstvo-hlebozavod-9-31282","address":"ул. Новодмитровская, д. 1, стр. 17","phone":"","subway":"Дмитровская","location":"msk","site_url":"https://kudago.com/msk/place/art-prostranstvo-hlebozavod-9-31282/","is_closed":false,"coords":{"lat":55.80707617848665,"lon":37.5848894391486},"is_stub":true},"description":"<p>17 и 18 ноября в столице развернётся маркет «4 сезона» — событие, которое дарит радость, вдохновение и приятные знакомства.</p>\n","categories":["exhibition","yarmarki-razvlecheniya-yarmarki"],"images":[{"image":"https://kudago.com/media/images/event/15/84/15849e6417dc117494dd46d469e30a56.jpg","source":{"name":"","link":""}},{"image":"https://kudago.com/media/images/event/96/35/9635dbfcdb2c18170a647c04d2fe2177.jpg","source":{"name":"","link":""}},{"image":"https://kudago.com/media/images/event/8f/1b/8f1b9fa1abd033286ce8cd99de83ccd8.jpg","source":{"name":"","link":""}},{"image":"https://kudago.com/media/images/event/1b/03/1b03a5f525f7cc0f02d2b88cea92adb0.jpg","source":{"name":"","link":""}},{"image":"https://kudago.com/media/images/event/82/2d/822d1b0436cfb14b541996d7192e6b30.jpg","source":{"name":"","link":""}},{"image":"https://kudago.com/media/images/event/8b/e9/8be99ad2c5b00d07f9c6359870ebb4e1.jpg","source":{"name":"","link":""}},{"image":"https://kudago.com/media/images/event/eb/d7/ebd7e6c7167448b84935e488cfddb882.jpg","source":{"name":"","link":""}}],"short_title":"4 сезона"},{"id":174275,"dates":[{"start":1541520000,"end":1541520000},{"start":1541538000,"end":1543352400}],"title":"выставка-триптих «Иллюзии. Фантазии. Вдохновение»","place":{"id":23353,"title":"Scenario Cafe","slug":"scenario-cafe","address":"ул. Тверская, д. 22А","phone":"+7 499 404-11-75","subway":"Пушкинская, Тверская","location":"msk","site_url":"https://kudago.com/msk/place/scenario-cafe/","is_closed":false,"coords":{"lat":55.76722999999999,"lon":37.60209399999997},"is_stub":false},"description":"<p>С тремя гранями творчества московской художницы Анны Коваль приглашает познакомиться Scenario Cafe.</p>","categories":["exhibition","tour"],"images":[{"image":"https://kudago.com/media/images/event/63/f0/63f001ab1d995f7ef4a74896aef2ae58.JPG","source":{"name":"","link":""}},{"image":"https://kudago.com/media/images/event/7d/7b/7d7be07d63165ef4f8e1e375c1ad3e98.JPG","source":{"name":"","link":""}},{"image":"https://kudago.com/media/images/event/bf/81/bf81cec43486982fbccf71da44f8caa6.JPG","source":{"name":"","link":""}},{"image":"https://kudago.com/media/images/event/e5/ca/e5ca7f1c5cbf8c4b27de6c25f4b28e22.JPG","source":{"name":"","link":""}},{"image":"https://kudago.com/media/images/event/61/10/61101d9078888005a134d3ca048d787e.JPG","source":{"name":"","link":""}},{"image":"https://kudago.com/media/images/event/e3/46/e34697d9e5f373e9e789312af2a2e83d.JPG","source":{"name":"","link":""}}],"short_title":"Иллюзии. Фантазии. Вдохновение"},{"id":173720,"dates":[{"start":1541844000,"end":1541862000}],"title":"день рождения «Ролл Холл»","place":{"id":24099,"title":"развлекательный центр «Ролл Холл»","slug":"torgovo-razvlekatelnyj-centr-roll-holl","address":"Холодильный пер., д. 3","phone":"+7 495 154-68-87","subway":"Тульская","location":"msk","site_url":"https://kudago.com/msk/place/torgovo-razvlekatelnyj-centr-roll-holl/","is_closed":false,"coords":{"lat":55.708389,"lon":37.62548699999999},"is_stub":false},"description":"<p>Развлекательный центр «Ролл Холл» отметит день рождения масштабной шоу-программой и оригинальными интерактивами для посетителей всех возрастов.</p>","categories":["kids","holiday"],"images":[{"image":"https://kudago.com/media/images/event/9a/34/9a34b99e2e05c153919fa830af522556.jpg","source":{"name":"","link":""}},{"image":"https://kudago.com/media/images/event/43/6f/436f4b30bc5bc4baeefed3451ef2b8a5.jpg","source":{"name":"","link":""}},{"image":"https://kudago.com/media/images/event/48/63/4863524a8e144572e0578f00050d1bd0.jpg","source":{"name":"","link":""}},{"image":"https://kudago.com/media/images/event/6c/d2/6cd2d8c497c5a0426743141fe1ce96c4.jpg","source":{"name":"","link":""}},{"image":"https://kudago.com/media/images/event/df/37/df377f266fbc0b5542d7843747718185.jpg","source":{"name":"","link":""}},{"image":"https://kudago.com/media/images/event/1a/ae/1aae40741bb0efeb522428cc821a2942.jpg","source":{"name":"","link":""}},{"image":"https://kudago.com/media/images/event/a7/54/a754aaa4583b0933a68e759341294467.jpg","source":{"name":"","link":""}},{"image":"https://kudago.com/media/images/event/b8/8b/b88b52418eacf4b6297f9943ad2f8a5c.jpg","source":{"name":"","link":""}},{"image":"https://kudago.com/media/images/event/50/01/5001c42562163951cf25569ce16009d7.jpg","source":{"name":"","link":""}},{"image":"https://kudago.com/media/images/event/7f/bc/7fbc8b043217138cd55a4466397b7565.jpg","source":{"name":"","link":""}}],"short_title":"день рождения «Ролл Холл»"},{"id":174479,"dates":[{"start":1541858400,"end":1541880000}],"title":"турнир по смешанным единоборствам ACB 90","place":{"id":27764,"title":"ЦСКА АРЕНА","slug":"arena-cska","address":"ул. Автозаводская, вл.23А","phone":"+7 495 613-43-72","subway":"Автозаводская","location":"msk","site_url":"https://kudago.com/msk/place/arena-cska/","is_closed":false,"coords":{"lat":55.70393990000021,"lon":37.63447279999974},"is_stub":true},"description":"<p>Смешанные единоборства  —  это зрелищный спорт, который становится все более популярным. Даже качественная телевизионная трансляция не сможет передать ту атмосферу, которую можно прочувствовать, увидев бой вживую.</p>","categories":["other","sport","show"],"images":[{"image":"https://kudago.com/media/images/event/20/a1/20a1d52346e2da6251b877322c1a7867.jpg","source":{"name":"","link":""}}],"short_title":"ACB 90"},{"id":136521,"dates":[{"start":1479675600,"end":1480280400},{"start":1483390800,"end":1483909200},{"start":1508101200,"end":1508706000},{"start":1511125200,"end":1511730000},{"start":1514926800,"end":1515445200},{"start":1516741200,"end":1517173200},{"start":1537131600,"end":1537736400},{"start":1543179600,"end":1543784400}],"title":"выставка-ярмарка «Шапочный разбор» в Московском доме художника","place":{"id":16376,"title":"Московский Дом Художника","slug":"moskovskij-dom-hudozhnika","address":"ул. Кузнецкий Мост, д.11","phone":"+7 495 628-81-41","subway":"Кузнецкий Мост, Лубянка","location":"msk","site_url":"https://kudago.com/msk/place/moskovskij-dom-hudozhnika/","is_closed":false,"coords":{"lat":55.762227,"lon":37.62219900000001},"is_stub":false},"description":"<p>«Шапочный разбор» приглашает подготовиться к осенне-зимнему сезону! На выставке-ярмарке представлены новинки и классические решения головных уборов, аксессуаров и одежды для этого времени года.</p>\n","categories":["exhibition","yarmarki-razvlecheniya-yarmarki"],"images":[{"image":"https://kudago.com/media/images/event/f1/59/f15970ccb2cb8f7e4458e6d34ed1688d.jpg","source":{"name":"","link":""}},{"image":"https://kudago.com/media/images/event/96/0d/960da0e2bea173450930e4e2ae2a172a.jpg","source":{"name":"","link":""}},{"image":"https://kudago.com/media/images/event/e5/7c/e57c0af72bea807fd7ea36854b30449f.jpg","source":{"name":"","link":""}},{"image":"https://kudago.com/media/images/event/0d/98/0d98016810e94447f97decfb6f9cff97.JPG","source":{"name":"","link":""}},{"image":"https://kudago.com/media/images/event/aa/3c/aa3c54a5ede25a815a4db7b51836a807.jpg","source":{"name":"","link":""}},{"image":"https://kudago.com/media/images/event/e4/92/e4927799a6cae71ffd912d321fc56444.jpg","source":{"name":"","link":""}},{"image":"https://kudago.com/media/images/event/29/10/2910d9aa8b659dfcfd6abef983e84e69.jpg","source":{"name":"","link":""}},{"image":"https://kudago.com/media/images/event/af/33/af33dda5588281c58b3475c047addaf1.jpg","source":{"name":"","link":""}},{"image":"https://kudago.com/media/images/event/0e/14/0e14ab706f37499dcee87febf50a0954.jpg","source":{"name":"","link":""}},{"image":"https://kudago.com/media/images/event/b6/2b/b62bf6ebd5bad7087b909af08d4c0cc6.jpg","source":{"name":"","link":""}},{"image":"https://kudago.com/media/images/event/92/fe/92fe2fe54a81ef1bb426e4b56409a492.jpg","source":{"name":"","link":""}}],"short_title":"Шапочный разбор"},{"id":174295,"dates":[{"start":1542351600,"end":1542474000}],"title":"II Pоссийско-германский форум креативных индустрий ART-WERK 2018","place":{"id":905,"title":"центр современного искусства «Винзавод»","slug":"winzavod","address":"4-й Сыромятнический пер., д. 1, стр. 6","phone":"+7 495 917-46-46","subway":"Курская, Чкаловская","location":"msk","site_url":"https://kudago.com/msk/place/winzavod/","is_closed":false,"coords":{"lat":55.75629999999997,"lon":37.66510200000001},"is_stub":false},"description":"<p>Форум станет коммуникационной площадкой для обмена опытом между креативными предпринимателями, городскими администрациями и представителями творческих профессий.</p>","categories":["meeting","exhibition","education"],"images":[{"image":"https://kudago.com/media/images/event/b8/8a/b88a529172e7750cc7311e23e7c60b6d.jpg","source":{"name":"","link":""}},{"image":"https://kudago.com/media/images/event/44/85/44850097f0c84ace9f7ba9c84fd523f0.jpg","source":{"name":"","link":""}},{"image":"https://kudago.com/media/images/event/af/34/af34b16204ae56d0ba7c6da3dbe4834b.jpg","source":{"name":"","link":""}},{"image":"https://kudago.com/media/images/event/d0/ec/d0ec1168af58031849d735f5ff8c3a43.jpeg","source":{"name":"","link":""}}],"short_title":"ART-WERK 2018"}]}